• sdmgamindex
…
save(sims, sims_sum, fittime, 
     file = here::here("inst",paste0("vigB_model_sim_fm_1.Rdata")))

#> Loading objects:
#>   sims
#>   sims_sum
#>   fittime

sims_sum
#> # A tibble: 41 × 4
#>     year           est           lwr           upr
#>    <int>         <dbl>         <dbl>         <dbl>
#>  1  1982 386780516095. 359351169861. 428471747128.
#>  2  1983 447069842515. 415649924128. 488151716241.
#>  3  1984 449059423942. 424163921517. 504746240801.
#>  4  1985 295846305905. 270558060738. 307781243817.
#>  5  1986 189794551256. 174554842158. 203093016065.
#>  6  1987 250382261163. 233419440685. 269992408894.
#>  7  1988 228599959469. 212006738931. 244250138044.
#>  8  1989 239799251091. 212292025303. 265639365676.
#>  9  1990 231899694486. 212509545426. 247627486453.
#> 10  1991 274071899850. 256386591487. 282773055634.
#> # ℹ 31 more rows
…
fittime <- difftime(Sys.time(),start.time, units = "mins")

save(fit, fittime, 
     file = here::here("inst",paste0("vigB_model_fits_fm_4.Rdata")))

#> Loading objects:
#>   fit
#>   fittime

cat("The GAM took ", fittime, "mins to run")
#> The GAM took  602.9014 mins to run
sdmTMB::sanity(fit)
tidy(fit)
#> # A tibble: 41 × 3
#>    term                estimate std.error
#>    <chr>                  <dbl>     <dbl>
#>  1 (Intercept)          6.61        0.472
#>  2 as.factor(year)1983  0.262       0.377
#>  3 as.factor(year)1984 -0.00390     0.375
#>  4 as.factor(year)1985 -0.213       0.375
#>  5 as.factor(year)1986 -0.766       0.379
#>  6 as.factor(year)1987 -0.448       0.383
#>  7 as.factor(year)1988 -0.423       0.376
#>  8 as.factor(year)1989 -0.439       0.377
#>  9 as.factor(year)1990 -0.594       0.374
#> 10 as.factor(year)1991 -0.346       0.379
#> # ℹ 31 more rows
…
