{sdmgamindex} case study with and without covariates • sdmgamindex
…
Here we want to match covariate data to the prediction grid.

dat_cov <- sdmgamindex::pred_grid_ebs %>% 
  dplyr::select(-Shape_Area) %>% 
  dplyr::mutate( 
    sx = ((lon - mean(lon, na.rm = TRUE))/1000),
    sy = ((lat - mean(lat, na.rm = TRUE))/1000))

sp_extrap_raster <- SpatialPoints(
  coords = coordinates(as.matrix(dat_cov[,c("lon", "lat")])), 
  proj4string = CRS(crs_latlon) )

dat_cov
#> # A tibble: 36,690 × 4
#>      lon   lat       sx      sy
#>    <dbl> <dbl>    <dbl>   <dbl>
#>  1 -176.  62.1 -0.00748 0.00384
#>  2 -176.  62.1 -0.00741 0.00385
#>  3 -176.  62.2 -0.00735 0.00386
#>  4 -176.  62.2 -0.00728 0.00387
#>  5 -176.  62.2 -0.00721 0.00389
#>  6 -176.  62.1 -0.00759 0.00379
#>  7 -176.  62.1 -0.00752 0.00380
#>  8 -176.  62.1 -0.00746 0.00381
#>  9 -176.  62.1 -0.00739 0.00382
#> 10 -176.  62.1 -0.00732 0.00383
#> # ℹ 36,680 more rows
…
